{
	"credit": "Made by 0ptima, totally cool guy from FrostBurn",
	"textures": {
		"0": "blocks/cauldron_inner",
		"1": "blocks/cauldron_side",
		"2": "blocks/cauldron_top",
		"particle": "blocks/cauldron_inner"
	},
	"elements": [
		{
			"name": "cube",
			"from": [6.75, 0, 1],
			"to": [9.25, 14, 3],
			"faces": {
				"north": {"uv": [0.5, 1, 3, 16], "texture": "#1"},
				"east": {"uv": [0.5, 1, 3, 16], "texture": "#1"},
				"south": {"uv": [0.5, 1, 3, 16], "texture": "#1"},
				"west": {"uv": [0.5, 1, 3, 16], "texture": "#1"},
				"up": {
					"uv": [6, 0, 8.5, 2],
					"texture": "#2",
					"rotation": 180
				}
			}
		},
		{
			"name": "cube",
			"from": [6.5, 0, 1],
			"to": [9.5, 14.001, 3],
			"faces": {
				"north": {"uv": [3, 1, 5.5, 16], "texture": "#1"},
				"east": {"uv": [3, 1, 5.5, 16], "texture": "#1"},
				"south": {"uv": [3, 1, 6, 15.001], "texture": "#1"},
				"west": {"uv": [3, 1, 5.5, 16], "texture": "#1"},
				"up": {
					"uv": [6, 0, 9, 2],
					"texture": "#2",
					"rotation": 180
				}
			},
			"rotation": {
				"origin": [8, 8, 8],
				"axis": "y",
				"angle": -22.5
			}
		},
		{
			"name": "cube",
			"from": [6.5, 0, 1],
			"to": [9.5, 14.001, 3],
			"faces": {
				"north": {"uv": [3, 1, 5.5, 16], "texture": "#1"},
				"east": {"uv": [3, 1, 5.5, 16], "texture": "#1"},
				"south": {"uv": [3, 1, 6, 15.001], "texture": "#1"},
				"west": {"uv": [3, 1, 5.5, 16], "texture": "#1"},
				"up": {
					"uv": [6, 0, 9, 2],
					"texture": "#2",
					"rotation": 180
				}
			},
			"rotation": {
				"origin": [8, 8, 8],
				"axis": "y",
				"angle": 22.5
			}
		},
		{
			"name": "cube",
			"from": [6.75, 0, 1],
			"to": [9.25, 14, 3],
			"faces": {
				"north": {"uv": [0.5, 1, 3, 16], "texture": "#1"},
				"east": {"uv": [0.5, 1, 3, 16], "texture": "#1"},
				"south": {"uv": [0.5, 1, 3, 16], "texture": "#1"},
				"west": {"uv": [0.5, 1, 3, 16], "texture": "#1"},
				"up": {
					"uv": [6, 0, 8.5, 2],
					"texture": "#2",
					"rotation": 180
				}
			},
			"rotation": {
				"origin": [8, 8, 8],
				"axis": "y",
				"angle": -45
			}
		},
		{
			"name": "cube",
			"from": [6.75, 0, 1],
			"to": [9.25, 14, 3],
			"faces": {
				"north": {"uv": [0.5, 1, 3, 16], "texture": "#1"},
				"east": {"uv": [0.5, 1, 3, 16], "texture": "#1"},
				"south": {"uv": [0.5, 1, 3, 16], "texture": "#1"},
				"west": {"uv": [0.5, 1, 3, 16], "texture": "#1"},
				"up": {
					"uv": [6, 0, 8.5, 2],
					"texture": "#2",
					"rotation": 180
				}
			},
			"rotation": {
				"origin": [8, 8, 8],
				"axis": "y",
				"angle": 45
			}
		},
		{
			"name": "cube",
			"from": [6.75, 0, 13],
			"to": [9.25, 14, 15],
			"faces": {
				"north": {"uv": [0.5, 1, 3, 16], "texture": "#1"},
				"east": {"uv": [0.5, 1, 3, 16], "texture": "#1"},
				"south": {"uv": [0.5, 1, 3, 16], "texture": "#1"},
				"west": {"uv": [0.5, 1, 3, 16], "texture": "#1"},
				"up": {"uv": [6, 0, 8.5, 2], "texture": "#2"}
			}
		},
		{
			"name": "cube",
			"from": [6.5, 0, 13],
			"to": [9.5, 14.001, 15],
			"faces": {
				"north": {"uv": [3, 1, 5.5, 16], "texture": "#1"},
				"east": {"uv": [3, 1, 5.5, 16], "texture": "#1"},
				"south": {"uv": [3, 1, 5.5, 16], "texture": "#1"},
				"west": {"uv": [3, 1, 5.5, 16], "texture": "#1"},
				"up": {"uv": [6, 0, 9, 2], "texture": "#2"}
			},
			"rotation": {
				"origin": [8, 8, 8],
				"axis": "y",
				"angle": -22.5
			}
		},
		{
			"name": "cube",
			"from": [6.5, 0, 13],
			"to": [9.5, 14.001, 15],
			"faces": {
				"north": {"uv": [3, 1, 6, 15.001], "texture": "#1"},
				"east": {"uv": [3, 1, 5.5, 16], "texture": "#1"},
				"south": {"uv": [3, 1, 5.5, 16], "texture": "#1"},
				"west": {"uv": [3, 1, 5.5, 16], "texture": "#1"},
				"up": {"uv": [6, 0, 9, 2], "texture": "#2"}
			},
			"rotation": {
				"origin": [8, 8, 8],
				"axis": "y",
				"angle": 22.5
			}
		},
		{
			"name": "cube",
			"from": [6.75, 0, 13],
			"to": [9.25, 14, 15],
			"faces": {
				"north": {"uv": [0.5, 1, 3, 16], "texture": "#1"},
				"east": {"uv": [0.5, 1, 3, 16], "texture": "#1"},
				"south": {"uv": [0.5, 1, 3, 16], "texture": "#1"},
				"west": {"uv": [0.5, 1, 3, 16], "texture": "#1"},
				"up": {"uv": [6, 0, 8.5, 2], "texture": "#2"}
			},
			"rotation": {
				"origin": [8, 8, 8],
				"axis": "y",
				"angle": 45
			}
		},
		{
			"name": "cube",
			"from": [6.75, 0, 13],
			"to": [9.25, 14, 15],
			"faces": {
				"north": {"uv": [0.5, 1, 3, 16], "texture": "#1"},
				"east": {"uv": [0.5, 1, 3, 16], "texture": "#1"},
				"south": {"uv": [0.5, 1, 3, 16], "texture": "#1"},
				"west": {"uv": [0.5, 1, 3, 16], "texture": "#1"},
				"up": {"uv": [6, 0, 8.5, 2], "texture": "#2"}
			},
			"rotation": {
				"origin": [8, 8, 8],
				"axis": "y",
				"angle": -45
			}
		},
		{
			"name": "cube",
			"from": [1, 0, 6.75],
			"to": [3, 14, 9.25],
			"faces": {
				"north": {"uv": [0.5, 1, 3, 16], "texture": "#1"},
				"east": {"uv": [0.5, 1, 3, 16], "texture": "#1"},
				"south": {"uv": [0.5, 1, 3, 16], "texture": "#1"},
				"west": {"uv": [0.5, 1, 3, 16], "texture": "#1"},
				"up": {
					"uv": [0, 5.5, 2, 9.5],
					"texture": "#2",
					"rotation": 180
				}
			}
		},
		{
			"name": "cube",
			"from": [1, 0, 6.5],
			"to": [3, 14.001, 9.5],
			"faces": {
				"north": {"uv": [3, 1, 5.5, 16], "texture": "#1"},
				"east": {"uv": [3, 1, 6, 15.001], "texture": "#1"},
				"south": {"uv": [3, 1, 5.5, 16], "texture": "#1"},
				"west": {"uv": [3, 1, 5.5, 16], "texture": "#1"},
				"up": {
					"uv": [0, 5.5, 2, 8.5],
					"texture": "#2",
					"rotation": 180
				}
			},
			"rotation": {
				"origin": [8, 8, 8],
				"axis": "y",
				"angle": -22.5
			}
		},
		{
			"name": "cube",
			"from": [1, 0, 6.5],
			"to": [3, 14.001, 9.5],
			"faces": {
				"north": {"uv": [3, 1, 5.5, 16], "texture": "#1"},
				"east": {"uv": [3, 1, 6, 15.001], "texture": "#1"},
				"south": {"uv": [3, 1, 5.5, 16], "texture": "#1"},
				"west": {"uv": [3, 1, 5.5, 16], "texture": "#1"},
				"up": {
					"uv": [0, 5.5, 2, 8.5],
					"texture": "#2",
					"rotation": 180
				}
			},
			"rotation": {
				"origin": [8, 8, 8],
				"axis": "y",
				"angle": 22.5
			}
		},
		{
			"name": "cube",
			"from": [13, 0, 6.75],
			"to": [15, 14, 9.25],
			"faces": {
				"north": {"uv": [0.5, 1, 3, 16], "texture": "#1"},
				"east": {"uv": [0.5, 1, 3, 16], "texture": "#1"},
				"south": {"uv": [0.5, 1, 3, 16], "texture": "#1"},
				"west": {"uv": [0.5, 1, 3, 16], "texture": "#1"},
				"up": {"uv": [0, 5.5, 2, 9.5], "texture": "#2"}
			}
		},
		{
			"name": "cube",
			"from": [13, 0, 6.5],
			"to": [15, 14.001, 9.5],
			"faces": {
				"north": {"uv": [3, 1, 5.5, 16], "texture": "#1"},
				"east": {"uv": [3, 1, 5.5, 16], "texture": "#1"},
				"south": {"uv": [3, 1, 5.5, 16], "texture": "#1"},
				"west": {"uv": [3, 1, 6, 15.001], "texture": "#1"},
				"up": {"uv": [0, 5.5, 2, 8.5], "texture": "#2"}
			},
			"rotation": {
				"origin": [8, 8, 8],
				"axis": "y",
				"angle": -22.5
			}
		},
		{
			"name": "cube",
			"from": [13, 0, 6.5],
			"to": [15, 14.001, 9.5],
			"faces": {
				"north": {"uv": [3, 1, 5.5, 16], "texture": "#1"},
				"east": {"uv": [3, 1, 5.5, 16], "texture": "#1"},
				"south": {"uv": [3, 1, 5.5, 16], "texture": "#1"},
				"west": {"uv": [3, 1, 6, 15.001], "texture": "#1"},
				"up": {"uv": [0, 5.5, 2, 8.5], "texture": "#2"}
			},
			"rotation": {
				"origin": [8, 8, 8],
				"axis": "y",
				"angle": 22.5
			}
		},
		{
			"name": "cube",
			"from": [3, 0, 4],
			"to": [13, 3, 12],
			"faces": {
				"up": {"uv": [2.5, 4, 12.5, 12], "texture": "#0"}
			}
		},
		{
			"name": "cube",
			"from": [4, 0, 3],
			"to": [12, 3, 4],
			"faces": {
				"up": {"uv": [2.5, 3, 10.5, 4], "texture": "#0"}
			}
		},
		{
			"name": "cube",
			"from": [4, 0, 12],
			"to": [12, 3, 13],
			"faces": {
				"up": {"uv": [2.5, 12, 10.5, 13], "texture": "#0"}
			}
		}
	]
}