{
	"credit": "Made by 0ptima, totally cool guy from FrostBurn",
	"ambientocclusion": false,
	"textures": {
		"0": "blocks/cone",
		"1": "blocks/cone_top_red",
		"2": "blocks/cone_top_white",
		"particle": "blocks/cone"
	},
	"elements": [
		{
			"name": "cube",
			"from": [3, 0, 3],
			"to": [13, 1, 13],
			"rotation": {
				"angle": 0,
				"axis": "y",
				"origin": [8, 0.5, 8]
			},
			"faces": {
				"north": {
					"uv": [2.75, 15, 12.75, 16],
					"texture": "#0"
				},
				"east": {
					"uv": [2.75, 15, 12.75, 16],
					"texture": "#0"
				},
				"south": {
					"uv": [2.75, 15, 12.75, 16],
					"texture": "#0"
				},
				"west": {
					"uv": [2.75, 15, 12.75, 16],
					"texture": "#0"
				},
				"up": {"uv": [3, 3, 13, 13], "texture": "#1"}
			}
		},
		{
			"name": "cube",
			"from": [4.5, 1, 4.5],
			"to": [11.5, 3, 11.5],
			"rotation": {
				"angle": 0,
				"axis": "y",
				"origin": [8, 2, 8]
			},
			"faces": {
				"north": {
					"uv": [2.75, 10.5, 9.75, 12.5],
					"texture": "#0"
				},
				"east": {
					"uv": [0.25, 4.75, 7.25, 6.75],
					"texture": "#0"
				},
				"south": {
					"uv": [2.75, 10.5, 9.75, 12.5],
					"texture": "#0"
				},
				"west": {
					"uv": [0.25, 4.75, 7.25, 6.75],
					"texture": "#0"
				},
				"up": {
					"uv": [5.5, 8.5, 12.5, 15.5],
					"texture": "#2"
				}
			}
		},
		{
			"name": "cube",
			"from": [5, 3, 5],
			"to": [11, 5, 11],
			"rotation": {
				"angle": 0,
				"axis": "y",
				"origin": [8, 4, 8]
			},
			"faces": {
				"north": {
					"uv": [1.75, 14, 7.75, 16],
					"texture": "#0"
				},
				"east": {"uv": [4, 2, 10, 4], "texture": "#0"},
				"south": {
					"uv": [1.75, 14, 7.75, 16],
					"texture": "#0"
				},
				"west": {"uv": [4, 2, 10, 4], "texture": "#0"},
				"up": {
					"uv": [9.5, 5.75, 15.5, 11.75],
					"texture": "#1"
				}
			}
		},
		{
			"name": "cube",
			"from": [5.5, 5, 5.5],
			"to": [10.5, 7, 10.5],
			"rotation": {
				"angle": 0,
				"axis": "y",
				"origin": [8, 6, 8]
			},
			"faces": {
				"north": {
					"uv": [10.5, 4.5, 15.5, 6.5],
					"texture": "#0"
				},
				"east": {"uv": [1, 4.75, 6, 6.75], "texture": "#0"},
				"south": {
					"uv": [10.5, 4.5, 15.5, 6.5],
					"texture": "#0"
				},
				"west": {"uv": [1, 4.75, 6, 6.75], "texture": "#0"},
				"up": {
					"uv": [6.5, 7.25, 11.5, 12.25],
					"texture": "#2"
				}
			}
		},
		{
			"name": "cube",
			"from": [6, 7, 6],
			"to": [10, 9, 10],
			"rotation": {
				"angle": 0,
				"axis": "y",
				"origin": [8, 8, 8]
			},
			"faces": {
				"north": {
					"uv": [2, 13.75, 6, 15.75],
					"texture": "#0"
				},
				"east": {
					"uv": [11.25, 7.75, 15.25, 9.75],
					"texture": "#0"
				},
				"south": {
					"uv": [2, 13.75, 6, 15.75],
					"texture": "#0"
				},
				"west": {
					"uv": [11.25, 7.75, 15.25, 9.75],
					"texture": "#0"
				},
				"up": {"uv": [5, 6.75, 9, 10.75], "texture": "#1"}
			}
		},
		{
			"name": "cube",
			"from": [6.5, 9, 6.5],
			"to": [9.5, 11, 9.5],
			"rotation": {
				"angle": 0,
				"axis": "y",
				"origin": [8, 10, 8]
			},
			"faces": {
				"north": {
					"uv": [7.25, 10.75, 10.25, 12.75],
					"texture": "#0"
				},
				"east": {
					"uv": [3.5, 10.5, 6.5, 12.5],
					"texture": "#0"
				},
				"south": {
					"uv": [7.25, 10.75, 10.25, 12.75],
					"texture": "#0"
				},
				"west": {
					"uv": [3.5, 10.5, 6.5, 12.5],
					"texture": "#0"
				},
				"up": {"uv": [12.5, 1, 15.5, 4], "texture": "#2"}
			}
		},
		{
			"name": "cube",
			"from": [7, 11, 7],
			"to": [9, 13, 9],
			"rotation": {
				"angle": 0,
				"axis": "y",
				"origin": [8, 12, 8]
			},
			"faces": {
				"north": {
					"uv": [3.5, 9.75, 5.5, 11.75],
					"texture": "#1"
				},
				"east": {
					"uv": [2, 13.75, 4, 15.75],
					"texture": "#0"
				},
				"south": {
					"uv": [3.5, 9.75, 5.5, 11.75],
					"texture": "#1"
				},
				"west": {
					"uv": [2, 13.75, 4, 15.75],
					"texture": "#0"
				},
				"up": {"uv": [8.75, 3, 10.75, 5], "texture": "#1"}
			}
		}
	]
}