{
	"credit": "Made by 0ptima, totally cool guy from FrostBurn",
	"textures": {
		"bars": "blocks/iron_bars_center",
		"particle": "blocks/iron_bars_center"
	},
	"elements": [
		{
			"name": "cube",
			"from": [8, 0, 0],
			"to": [8, 16, 8],
			"faces": {
				"east": {"uv": [8, 0, 16, 16], "texture": "#bars"},
				"west": {"uv": [16, 0, 8, 16], "texture": "#bars"}
			}
		}
	],
	"ambientocclusion": false
}