{
    "parent": "block/cube_bottom_top",
    "textures": {
        "bottom": "blocks/red_sandstone_top1",
        "top": "blocks/red_sandstone_top1",
        "side": "blocks/red_sandstone_top1"
    }
}
