{
	"credit": "Made by 0ptima, totally cool guy from FrostBurn",
	"ambientocclusion": false,
	"textures": {
		"0": "blocks/cone_cross",
		"1": "blocks/cone_top_white",
		"particle": "blocks/cone_cross"
	},
	"elements": [
		{
			"name": "cube",
			"from": [1, 0, 0],
			"to": [2, 19.75, 1],
			"shade": false,
			"rotation": {
				"angle": 22.5,
				"axis": "x",
				"origin": [1, 0, 0]
			},
			"faces": {
				"north": {"uv": [2, 0, 3, 16], "texture": "#1"},
				"east": {"uv": [1, 0, 2, 16], "texture": "#1"},
				"south": {"uv": [13, 0, 14, 16], "texture": "#1"},
				"west": {"uv": [7, 0, 8, 16], "texture": "#1"},
				"up": {"uv": [7, 9, 8, 10], "texture": "#1"}
			}
		},
		{
			"name": "cube",
			"from": [1, 0, 15],
			"to": [2, 19.75, 16],
			"shade": false,
			"rotation": {
				"angle": -22.5,
				"axis": "x",
				"origin": [1, 0, 16]
			},
			"faces": {
				"north": {"uv": [12, 0, 13, 16], "texture": "#1"},
				"east": {"uv": [3, 0, 4, 16], "texture": "#1"},
				"south": {"uv": [0, 0, 1, 16], "texture": "#1"},
				"west": {"uv": [15, 0, 16, 16], "texture": "#1"},
				"up": {"uv": [0, 0, 1, 1], "texture": "#1"}
			}
		},
		{
			"name": "cube",
			"from": [14, 0, 0],
			"to": [15, 19.75, 1],
			"shade": false,
			"rotation": {
				"angle": 22.5,
				"axis": "x",
				"origin": [14, 0, 0]
			},
			"faces": {
				"north": {"uv": [4, 0, 5, 16], "texture": "#1"},
				"east": {"uv": [0, 0, 1, 16], "texture": "#1"},
				"south": {"uv": [9, 0, 10, 16], "texture": "#1"},
				"west": {"uv": [2, 0, 3, 16], "texture": "#1"},
				"up": {"uv": [5, 9, 6, 10], "texture": "#1"}
			}
		},
		{
			"name": "cube",
			"from": [14, 0, 15],
			"to": [15, 19.75, 16],
			"shade": false,
			"rotation": {
				"angle": -22.5,
				"axis": "x",
				"origin": [14, 0, 16]
			},
			"faces": {
				"north": {"uv": [11, 0, 12, 16], "texture": "#1"},
				"east": {"uv": [5, 0, 6, 16], "texture": "#1"},
				"south": {"uv": [0, 0, 1, 16], "texture": "#1"},
				"west": {"uv": [13, 0, 14, 16], "texture": "#1"},
				"up": {"uv": [0, 0, 1, 1], "texture": "#1"}
			}
		},
		{
			"name": "cube",
			"from": [0, 13, -1],
			"to": [16, 17, 0],
			"shade": false,
			"rotation": {
				"angle": 22.5,
				"axis": "x",
				"origin": [8, 0, -0.5]
			},
			"faces": {
				"north": {"uv": [0, 7, 16, 11], "texture": "#0"},
				"east": {"uv": [3, 7, 4, 11], "texture": "#1"},
				"south": {"uv": [0, 8, 16, 12], "texture": "#1"},
				"west": {"uv": [3, 7, 4, 11], "texture": "#1"},
				"up": {"uv": [0, 5, 16, 6], "texture": "#0"},
				"down": {"uv": [0, 8, 16, 9], "texture": "#0"}
			}
		},
		{
			"name": "cube",
			"from": [0, 13, 16],
			"to": [16, 17, 17],
			"shade": false,
			"rotation": {
				"angle": -22.5,
				"axis": "x",
				"origin": [8, 0, 16.5]
			},
			"faces": {
				"north": {"uv": [0, 8, 16, 12], "texture": "#1"},
				"east": {"uv": [3, 7, 4, 11], "texture": "#1"},
				"south": {"uv": [0, 7, 16, 11], "texture": "#0"},
				"west": {"uv": [3, 7, 4, 11], "texture": "#1"},
				"up": {
					"uv": [0, 5, 16, 6],
					"texture": "#0",
					"rotation": 180
				},
				"down": {
					"uv": [0, 8, 16, 9],
					"texture": "#0",
					"rotation": 180
				}
			}
		},
		{
			"name": "cube",
			"from": [0, 5, -1],
			"to": [16, 9, 0],
			"shade": false,
			"rotation": {
				"angle": 22.5,
				"axis": "x",
				"origin": [8, 0, -0.5]
			},
			"faces": {
				"north": {"uv": [0, 7, 16, 11], "texture": "#1"},
				"east": {"uv": [3, 7, 4, 11], "texture": "#1"},
				"south": {"uv": [0, 8, 16, 12], "texture": "#1"},
				"west": {"uv": [3, 7, 4, 11], "texture": "#1"},
				"up": {"uv": [0, 6, 16, 7], "texture": "#1"},
				"down": {"uv": [0, 8, 16, 9], "texture": "#1"}
			}
		},
		{
			"name": "cube",
			"from": [0, 5, 16],
			"to": [16, 9, 17],
			"shade": false,
			"rotation": {
				"angle": -22.5,
				"axis": "x",
				"origin": [8, 0, 16.5]
			},
			"faces": {
				"north": {"uv": [0, 8, 16, 12], "texture": "#1"},
				"east": {"uv": [3, 7, 4, 11], "texture": "#1"},
				"south": {"uv": [0, 7, 16, 11], "texture": "#1"},
				"west": {"uv": [3, 7, 4, 11], "texture": "#1"},
				"up": {
					"uv": [0, 6, 16, 7],
					"texture": "#1",
					"rotation": 180
				},
				"down": {
					"uv": [0, 8, 16, 9],
					"texture": "#1",
					"rotation": 180
				}
			}
		}
	]
}