{
	"credit": "Made by 0ptima, totally cool guy from FrostBurn",
	"ambientocclusion": false,
	"textures": {
		"0": "blocks/tallgrass2_layer1",
		"1": "blocks/tallgrass2_layer2"
	},
	"elements": [
		{
			"name": "BASE",
			"from": [8, 0, 0],
			"to": [8, 16, 16],
			"shade": false,
			"faces": {
				"east": {"uv": [0, 0, 16, 16], "texture": "#0"},
				"west": {"uv": [16, 0, 0, 16], "texture": "#0"}
			},
			"rotation": {
				"origin": [8, 8, 8],
				"axis": "y",
				"angle": -22.5,
				"rescale": true
			},
			"shade": false
		},
		{
			"name": "BASE",
			"from": [12, 0, 2],
			"to": [12, 16, 18],
			"shade": false,
			"faces": {
				"east": {"uv": [0, 0, 16, 16], "texture": "#1"},
				"west": {"uv": [16, 0, 0, 16], "texture": "#1"}
			},
			"rotation": {
				"origin": [12, 8, 10],
				"axis": "y",
				"angle": -22.5,
				"rescale": true
			},
			"shade": false
		},
		{
			"name": "BASE",
			"from": [4, 0, -2],
			"to": [4, 16, 14],
			"shade": false,
			"faces": {
				"east": {"uv": [0, 0, 16, 16], "texture": "#1"},
				"west": {"uv": [16, 0, 0, 16], "texture": "#1"}
			},
			"rotation": {
				"origin": [4, 8, 6],
				"axis": "y",
				"angle": -22.5,
				"rescale": true
			},
			"shade": false
		},
		{
			"name": "BASE",
			"from": [0, 0, 8],
			"to": [16, 16, 8],
			"faces": {
				"north": {"uv": [16, 0, 0, 16], "texture": "#0"},
				"south": {"uv": [0, 0, 16, 16], "texture": "#0"}
			},
			"rotation": {
				"origin": [8, 8, 8],
				"axis": "y",
				"angle": -22.5
			},
			"shade": false
		},
		{
			"name": "BASE",
			"from": [1, 0, 4],
			"to": [17, 16, 4],
			"faces": {
				"north": {"uv": [16, 0, 0, 16], "texture": "#1"},
				"south": {"uv": [0, 0, 16, 16], "texture": "#1"}
			},
			"rotation": {
				"origin": [9, 8, 4],
				"axis": "y",
				"angle": -22.5
			},
			"shade": false
		},
		{
			"name": "BASE",
			"from": [-2, 0, 12],
			"to": [14, 16, 12],
			"faces": {
				"north": {"uv": [16, 0, 0, 16], "texture": "#1"},
				"south": {"uv": [0, 0, 16, 16], "texture": "#1"}
			},
			"rotation": {
				"origin": [6, 8, 12],
				"axis": "y",
				"angle": -22.5
			},
			"shade": false
		}
	]
}