{
	"credit": "Made by 0ptima, totally cool guy from FrostBurn",
	"ambientocclusion": false,
	"textures": {
		"0": "blocks/tallgrass_layer1",
		"1": "blocks/tallgrass_layer2",
		"particle": "blocks/grass_top"
	},
	"elements": [
		{
			"name": "BASE",
			"from": [8, 0, 0],
			"to": [8, 16, 16],
			"faces": {
				"east": {"uv": [0, 0, 16, 16], "texture": "#0"},
				"west": {"uv": [16, 0, 0, 16], "texture": "#0"}
			},
			"rotation": {
				"origin": [8, 8, 8],
				"axis": "y",
				"angle": 45,
				"rescale": true
			},
			"shade": false
		},
		{
			"name": "BASE",
			"from": [8, 0, 0],
			"to": [8, 16, 16],
			"faces": {
				"east": {"uv": [0, 0, 16, 16], "texture": "#0"},
				"west": {"uv": [16, 0, 0, 16], "texture": "#0"}
			},
			"rotation": {
				"origin": [8, 8, 8],
				"axis": "y",
				"angle": -45,
				"rescale": true
			},
			"shade": false
		},
		{
			"name": "BASE",
			"from": [12, 0, -4],
			"to": [12, 16, 12],
			"faces": {
				"east": {"uv": [0, 0, 16, 16], "texture": "#1"},
				"west": {"uv": [16, 0, 0, 16], "texture": "#1"}
			},
			"rotation": {
				"origin": [12, 8, 4],
				"axis": "y",
				"angle": 45,
				"rescale": true
			},
			"shade": false
		},
		{
			"name": "BASE",
			"from": [12, 0, 4],
			"to": [12, 16, 20],
			"faces": {
				"east": {"uv": [0, 0, 16, 16], "texture": "#1"},
				"west": {"uv": [16, 0, 0, 16], "texture": "#1"}
			},
			"rotation": {
				"origin": [12, 8, 12],
				"axis": "y",
				"angle": -45,
				"rescale": true
			},
			"shade": false
		},
		{
			"name": "BASE",
			"from": [4, 0, 4],
			"to": [4, 16, 20],
			"faces": {
				"east": {"uv": [0, 0, 16, 16], "texture": "#1"},
				"west": {"uv": [16, 0, 0, 16], "texture": "#1"}
			},
			"rotation": {
				"origin": [4, 8, 12],
				"axis": "y",
				"angle": 45,
				"rescale": true
			},
			"shade": false
		},
		{
			"name": "BASE",
			"from": [4, 0, -4],
			"to": [4, 16, 12],
			"faces": {
				"east": {"uv": [0, 0, 16, 16], "texture": "#1"},
				"west": {"uv": [16, 0, 0, 16], "texture": "#1"}
			},
			"rotation": {
				"origin": [4, 8, 4],
				"axis": "y",
				"angle": -45,
				"rescale": true
			},
			"shade": false
		}
	]
}