{
	"credit": "Made by 0ptima, totally cool guy from FrostBurn",
	"textures": {
		"0": "cem/r_leg",
		"particle": "cem/r_leg"
	},
	"elements": [
		{
			"from": [-2, 7.5, -2],
			"to": [2, 12, 2],
			"faces": {
				"north": {"uv": [4, 11.5, 8, 16], "texture": "#0"},
				"east": {"uv": [0, 11.5, 4, 16], "texture": "#0"},
				"south": {"uv": [12, 11.5, 16, 16], "texture": "#0"},
				"west": {"uv": [8, 11.5, 12, 16], "texture": "#0"},
				"up": {"uv": [8, 0, 12, 4], "texture": "#0"},
				"down": {"uv": [8, 0, 12, 4], "texture": "#0"}
			}
		},
		{
			"from": [-1.75, 0, -1.75],
			"to": [2, 7.5, 2],
			"faces": {
				"north": {"uv": [4, 4, 8, 11.5], "texture": "#0"},
				"east": {"uv": [0, 4, 4, 11.5], "texture": "#0"},
				"south": {"uv": [12, 4, 16, 11.5], "texture": "#0"},
				"west": {"uv": [8, 4, 12, 11.5], "texture": "#0"},
				"up": {"uv": [4, 0, 8, 4], "texture": "#0"},
				"down": {"uv": [8, 0, 12, 4], "texture": "#0"}
			}
		}
	]
}