{
	"credit": "Made by 0ptima, totally cool guy from FrostBurn",
	"textures": {
		"0": "cem/r_arm",
		"particle": "cem/r_arm"
	},
	"elements": [
		{
			"from": [-1.5, -2, -2],
			"to": [1.5, 10, 2],
			"rotation": {"angle": 0, "axis": "y", "origin": [8, 8, 8]},
			"faces": {
				"north": {"uv": [4, 4, 7, 16], "texture": "#0"},
				"east": {"uv": [0, 4, 4, 16], "texture": "#0"},
				"south": {"uv": [11, 4, 14, 16], "texture": "#0"},
				"west": {"uv": [7, 4, 11, 16], "texture": "#0"},
				"up": {"uv": [4, 0, 7, 4], "texture": "#0"},
				"down": {"uv": [10, 4, 7, 0], "texture": "#0"}
			}
		}
	]
}