{
	"credit": "Made by 0ptima, totally cool guy from FrostBurn",
	"textures": {
		"0": "blocks/models/pyramide_sword3",
		"particle": "blocks/models/pyramide_sword3"
	},
	"elements": [
		{
			"from": [7.5, 1, 6],
			"to": [8.5, 4, 20],
			"faces": {
				"north": {"uv": [0, 0, 1, 3], "texture": "#missing"},
				"east": {"uv": [10, 2.5, 3, 4], "texture": "#0"},
				"south": {"uv": [0, 0, 1, 3], "texture": "#missing"},
				"west": {"uv": [3, 2.5, 10, 4], "texture": "#0"},
				"up": {"uv": [10, 2.5, 3, 3], "texture": "#0"},
				"down": {"uv": [0, 0, 1, 14], "texture": "#missing"}
			}
		},
		{
			"from": [7.5, 4, 16],
			"to": [8.5, 5, 20],
			"faces": {
				"north": {"uv": [9.5, 2, 10, 2.5], "texture": "#0"},
				"east": {"uv": [10, 2, 8, 2.5], "texture": "#0"},
				"south": {"uv": [0, 0, 1, 1], "texture": "#missing"},
				"west": {"uv": [8, 2, 10, 2.5], "texture": "#0"},
				"up": {"uv": [10, 2, 8, 2.5], "texture": "#0", "rotation": 90},
				"down": {"uv": [0, 0, 1, 4], "texture": "#missing"}
			}
		},
		{
			"from": [7.5, 1, 6],
			"to": [8, 1.5, 20],
			"rotation": {"angle": 45, "axis": "z", "origin": [8, 1.5, 9], "rescale": true},
			"faces": {
				"north": {"uv": [0, 0, 0.5, 0.5], "texture": "#missing"},
				"south": {"uv": [0, 0, 0.5, 0.5], "texture": "#missing"},
				"west": {"uv": [3, 4.5, 10, 5], "texture": "#0"},
				"down": {"uv": [10, 4.5, 3, 5], "texture": "#0", "rotation": 90}
			}
		},
		{
			"from": [7.25, 0.25, 20],
			"to": [8.75, 5.25, 21],
			"faces": {
				"north": {"uv": [10.5, 1.75, 10, 4.25], "texture": "#0"},
				"east": {"uv": [10.5, 1.75, 10, 4.25], "texture": "#0"},
				"south": {"uv": [10.5, 1.75, 10, 4.25], "texture": "#0"},
				"west": {"uv": [10, 1.75, 10.5, 4.25], "texture": "#0"},
				"up": {"uv": [10.5, 1.75, 10, 2.5], "texture": "#0", "rotation": 90},
				"down": {"uv": [10.5, 1.75, 10, 2.5], "texture": "#0", "rotation": 90}
			}
		},
		{
			"from": [7.5, 1.5, -8],
			"to": [8.5, 5, -5],
			"faces": {
				"north": {"uv": [6.5, 5.625, 7, 7.375], "texture": "#0"},
				"east": {"uv": [8, 5.625, 6.5, 7.375], "texture": "#0"},
				"south": {"uv": [0, 0, 1, 3.5], "texture": "#missing"},
				"west": {"uv": [6.5, 5.625, 8, 7.375], "texture": "#0"},
				"up": {"uv": [6.5, 5.625, 8, 6.125], "texture": "#0", "rotation": 90},
				"down": {"uv": [0, 0, 1, 3], "texture": "#missing"}
			}
		},
		{
			"from": [7.5, 1.9, -9.5],
			"to": [8.5, 5, -8],
			"faces": {
				"north": {"uv": [5.75, 5.625, 6.25, 7.375], "texture": "#0"},
				"east": {"uv": [6.5, 5.625, 5.75, 7.375], "texture": "#0"},
				"south": {"uv": [0, 0, 1, 3.1], "texture": "#missing"},
				"west": {"uv": [5.75, 5.625, 6.5, 7.375], "texture": "#0"},
				"up": {"uv": [5.75, 5.625, 6.5, 6.125], "texture": "#0", "rotation": 90},
				"down": {"uv": [0, 0, 1, 1.5], "texture": "#missing"}
			}
		},
		{
			"from": [7.5, 3.25, -13.5],
			"to": [8.5, 5, -12.25],
			"faces": {
				"north": {"uv": [3.65, 5.625, 4.15, 6.5], "texture": "#0"},
				"east": {"uv": [4.275, 5.625, 3.65, 6.5], "texture": "#0"},
				"south": {"uv": [0, 0, 1, 1.75], "texture": "#missing"},
				"west": {"uv": [3.65, 5.625, 4.275, 6.5], "texture": "#0"},
				"up": {"uv": [3.65, 5.625, 4.275, 6.125], "texture": "#0", "rotation": 90},
				"down": {"uv": [3, 2.5, 3.5, 2.89976], "texture": "#0"}
			}
		},
		{
			"from": [7.5, 3.7, -14.5],
			"to": [8.5, 5, -13.5],
			"faces": {
				"north": {"uv": [3.15, 5.625, 3.65, 6.275], "texture": "#0"},
				"east": {"uv": [3.65, 5.625, 3.15, 6.275], "texture": "#0"},
				"south": {"uv": [0, 0, 1, 1.3], "texture": "#missing"},
				"west": {"uv": [3.15, 5.625, 3.65, 6.275], "texture": "#0"},
				"up": {"uv": [3.15, 5.625, 3.65, 6.125], "texture": "#0"},
				"down": {"uv": [0, 0, 1, 1], "texture": "#missing"}
			}
		},
		{
			"from": [7.5, 4.35, -15],
			"to": [8.5, 5, -14.5],
			"faces": {
				"north": {"uv": [3, 2.5, 3.5, 2.89976], "texture": "#0"},
				"east": {"uv": [3.25, 5.625, 3, 5.95], "texture": "#0"},
				"south": {"uv": [0, 0, 1, 0.65], "texture": "#missing"},
				"west": {"uv": [3, 5.625, 3.25, 5.95], "texture": "#0"},
				"up": {"uv": [3, 5.625, 3.25, 6.125], "texture": "#0", "rotation": 90},
				"down": {"uv": [3, 2.5, 3.5, 2.89976], "texture": "#0"}
			}
		},
		{
			"from": [7.5, 1.5, -8],
			"to": [8, 2, -5],
			"rotation": {"angle": 45, "axis": "z", "origin": [8, 2, 3], "rescale": true},
			"faces": {
				"north": {"uv": [5, 8.125, 5.75, 8.625], "texture": "#0"},
				"south": {"uv": [6.5, 8.125, 8, 8.625], "texture": "#0"},
				"west": {"uv": [6.5, 8.125, 8, 8.625], "texture": "#0"},
				"down": {"uv": [8, 8.125, 6.5, 8.625], "texture": "#0", "rotation": 90}
			}
		},
		{
			"from": [7.5, 1.9, -9.5],
			"to": [8, 2.4, -8],
			"rotation": {"angle": 45, "axis": "z", "origin": [8, 2.4, 0], "rescale": true},
			"faces": {
				"north": {"uv": [5.75, 8.125, 6.5, 8.625], "texture": "#0"},
				"south": {"uv": [5.75, 8.125, 6.5, 8.625], "texture": "#0"},
				"west": {"uv": [5.75, 8.125, 6.5, 8.625], "texture": "#0"},
				"down": {"uv": [6.5, 8.125, 5.75, 8.625], "texture": "#0", "rotation": 90}
			}
		},
		{
			"from": [7.5, 3.3, -13.5],
			"to": [8, 3.8, -12.25],
			"rotation": {"angle": 45, "axis": "z", "origin": [8, 3.8, -2.5], "rescale": true},
			"faces": {
				"north": {"uv": [3.65, 8.125, 4.275, 8.625], "texture": "#0"},
				"south": {"uv": [3.65, 8.125, 4.275, 8.625], "texture": "#0"},
				"west": {"uv": [3.65, 8.125, 4.275, 8.625], "texture": "#0"},
				"down": {"uv": [4.275, 8.125, 3.65, 8.625], "texture": "#0", "rotation": 90}
			}
		},
		{
			"from": [7.5, 3.7, -14.5],
			"to": [8, 4.2, -13.5],
			"rotation": {"angle": 45, "axis": "z", "origin": [8, 4.2, -4], "rescale": true},
			"faces": {
				"north": {"uv": [3.15, 8.125, 3.65, 8.625], "texture": "#0"},
				"south": {"uv": [3.15, 8.125, 3.65, 8.625], "texture": "#0"},
				"west": {"uv": [3.15, 8.125, 3.65, 8.625], "texture": "#0"},
				"down": {"uv": [3.15, 8.125, 3.65, 8.625], "texture": "#0"}
			}
		},
		{
			"from": [7.5, 4.35, -14.95],
			"to": [8, 4.85, -14.5],
			"rotation": {"angle": 45, "axis": "z", "origin": [8, 4.85, -4.25], "rescale": true},
			"faces": {
				"north": {"uv": [3, 8.125, 3.25, 8.625], "texture": "#0"},
				"south": {"uv": [3, 8.125, 3.25, 8.625], "texture": "#0"},
				"west": {"uv": [3, 8.125, 3.25, 8.625], "texture": "#0"},
				"down": {"uv": [3, 8.125, 3.25, 8.625], "texture": "#0"}
			}
		},
		{
			"from": [7.6, 3.5, 6.5],
			"to": [8.4, 4.5, 7.5],
			"rotation": {"angle": 45, "axis": "x", "origin": [8, 4, 7], "rescale": true},
			"faces": {
				"north": {"uv": [3, 2.5, 3.5, 3.25], "texture": "#0"},
				"east": {"uv": [3, 2.5, 3.75, 3.25], "texture": "#0"},
				"west": {"uv": [3, 2.5, 3.75, 3.25], "texture": "#0"},
				"up": {"uv": [3, 2.5, 3.5, 3.25], "texture": "#0"}
			}
		},
		{
			"from": [7.6, 3.5, 8.5],
			"to": [8.4, 4.5, 9.5],
			"rotation": {"angle": 45, "axis": "x", "origin": [8, 4, 9], "rescale": true},
			"faces": {
				"north": {"uv": [3, 2.5, 3.5, 3.25], "texture": "#0"},
				"east": {"uv": [3.75, 2.5, 4.5, 3.25], "texture": "#0"},
				"west": {"uv": [3.75, 2.5, 4.5, 3.25], "texture": "#0"},
				"up": {"uv": [3, 2.5, 3.5, 3.25], "texture": "#0"}
			}
		},
		{
			"from": [7.6, 3.5, 10.5],
			"to": [8.4, 4.5, 11.5],
			"rotation": {"angle": 45, "axis": "x", "origin": [8, 4, 11], "rescale": true},
			"faces": {
				"north": {"uv": [3, 2.5, 3.5, 3.25], "texture": "#0"},
				"east": {"uv": [4.5, 2.5, 5.25, 3.25], "texture": "#0"},
				"west": {"uv": [4.5, 2.5, 5.25, 3.25], "texture": "#0"},
				"up": {"uv": [3, 2.5, 3.5, 3.25], "texture": "#0"}
			}
		},
		{
			"from": [7.6, 3.5, 12.5],
			"to": [8.4, 4.5, 13.5],
			"rotation": {"angle": 45, "axis": "x", "origin": [8, 4, 13], "rescale": true},
			"faces": {
				"north": {"uv": [3, 2.5, 3.5, 3.25], "texture": "#0"},
				"east": {"uv": [5.25, 2.5, 6, 3.25], "texture": "#0"},
				"west": {"uv": [5.25, 2.5, 6, 3.25], "texture": "#0"},
				"up": {"uv": [3, 2.5, 3.5, 3.25], "texture": "#0"}
			}
		},
		{
			"from": [7.6, 3.5, 14.5],
			"to": [8.4, 4.5, 15.5],
			"rotation": {"angle": 45, "axis": "x", "origin": [8, 4, 15], "rescale": true},
			"faces": {
				"north": {"uv": [3, 2.5, 3.5, 3.25], "texture": "#0"},
				"east": {"uv": [6.75, 2.5, 7.5, 3.25], "texture": "#0"},
				"west": {"uv": [6.75, 2.5, 7.5, 3.25], "texture": "#0"},
				"up": {"uv": [3, 2.5, 3.5, 3.25], "texture": "#0"}
			}
		},
		{
			"from": [7.5, 1.2, -5],
			"to": [8.5, 5, -2],
			"faces": {
				"north": {"uv": [6.5, 5.625, 7, 7.375], "texture": "#0"},
				"east": {"uv": [9.5, 5.625, 8, 7.625], "texture": "#0"},
				"south": {"uv": [0, 0, 1, 3.8], "texture": "#missing"},
				"west": {"uv": [8, 5.625, 9.5, 7.625], "texture": "#0"},
				"up": {"uv": [8, 5.625, 9.5, 6.125], "texture": "#0", "rotation": 90},
				"down": {"uv": [0, 0, 1, 3], "texture": "#missing"}
			}
		},
		{
			"from": [7.5, 1.2, -5],
			"to": [8, 1.7, -2],
			"rotation": {"angle": 45, "axis": "z", "origin": [8, 1.7, 6], "rescale": true},
			"faces": {
				"north": {"uv": [5, 8.125, 5.75, 8.625], "texture": "#0"},
				"south": {"uv": [8, 8.125, 9.5, 8.625], "texture": "#0"},
				"west": {"uv": [8, 8.125, 9.5, 8.625], "texture": "#0"},
				"down": {"uv": [9.5, 8.125, 8, 8.625], "texture": "#0", "rotation": 90}
			}
		},
		{
			"from": [7.5, 2.3, -11],
			"to": [8.5, 5, -9.5],
			"faces": {
				"north": {"uv": [5, 5.625, 5.75, 6.975], "texture": "#0"},
				"east": {"uv": [5.75, 5.625, 5, 6.975], "texture": "#0"},
				"south": {"uv": [0, 0, 1, 2.7], "texture": "#missing"},
				"west": {"uv": [5, 5.625, 5.75, 6.975], "texture": "#0"},
				"up": {"uv": [5, 5.625, 5.75, 6.125], "texture": "#0", "rotation": 90},
				"down": {"uv": [0, 0, 1, 1.5], "texture": "#missing"}
			}
		},
		{
			"from": [7.5, 2.3, -11],
			"to": [8, 2.8, -9.5],
			"rotation": {"angle": 45, "axis": "z", "origin": [8, 2.8, 0], "rescale": true},
			"faces": {
				"north": {"uv": [5, 8.125, 5.75, 8.625], "texture": "#0"},
				"south": {"uv": [5, 8.125, 5.75, 8.625], "texture": "#0"},
				"west": {"uv": [5, 8.125, 5.75, 8.625], "texture": "#0"},
				"down": {"uv": [5.75, 8.125, 5, 8.625], "texture": "#0", "rotation": 90}
			}
		},
		{
			"from": [7.5, 2.8, -12.25],
			"to": [8, 3.3, -11],
			"rotation": {"angle": 45, "axis": "z", "origin": [8, 3.3, -1.25], "rescale": true},
			"faces": {
				"north": {"uv": [4.5, 8.125, 5.125, 8.625], "texture": "#0"},
				"south": {"uv": [4.5, 8.125, 5.125, 8.625], "texture": "#0"},
				"west": {"uv": [4.5, 8.125, 5.125, 8.625], "texture": "#0"},
				"down": {"uv": [5.125, 8.125, 4.5, 8.625], "texture": "#0", "rotation": 90}
			}
		},
		{
			"from": [7.5, 2.75, -12.25],
			"to": [8.5, 5, -11],
			"faces": {
				"north": {"uv": [4.275, 5.625, 4.9, 6.75], "texture": "#0"},
				"east": {"uv": [4.9, 5.625, 4.275, 6.75], "texture": "#0"},
				"south": {"uv": [0, 0, 1, 2.25], "texture": "#missing"},
				"west": {"uv": [4.275, 5.625, 4.9, 6.75], "texture": "#0"},
				"up": {"uv": [4.275, 5.625, 4.9, 6.125], "texture": "#0", "rotation": 90},
				"down": {"uv": [3, 2.5, 3.5, 2.89976], "texture": "#0"}
			}
		},
		{
			"from": [7.5, 3.5, 21.75],
			"to": [8.5, 4.75, 26.5],
			"faces": {
				"east": {"uv": [13.5, 2, 11, 2.5], "texture": "#0"},
				"west": {"uv": [11, 2, 13.5, 2.5], "texture": "#0"},
				"up": {"uv": [11, 2, 13.5, 2.5], "texture": "#0", "rotation": 90},
				"down": {"uv": [11, 2, 13.5, 2.5], "texture": "#0", "rotation": 90}
			}
		},
		{
			"from": [7.5, 3.25, 26.5],
			"to": [8.5, 4.75, 29.25],
			"faces": {
				"north": {"uv": [14.5, 2, 13.5, 2.5], "texture": "#0", "rotation": 90},
				"east": {"uv": [14.5, 2, 13.5, 2.75], "texture": "#0"},
				"south": {"uv": [0, 0, 1, 1.5], "texture": "#missing"},
				"west": {"uv": [13.5, 2, 14.5, 2.75], "texture": "#0"},
				"up": {"uv": [14.5, 2, 13.5, 2.5], "texture": "#0", "rotation": 90},
				"down": {"uv": [14.5, 2, 13.5, 2.5], "texture": "#0", "rotation": 90}
			}
		},
		{
			"from": [7.5, 3.25, 21],
			"to": [8.5, 5, 21.75],
			"faces": {
				"east": {"uv": [10.5, 2, 11, 2.75], "texture": "#0"},
				"south": {"uv": [10.5, 2, 11, 2.75], "texture": "#0"},
				"west": {"uv": [10.5, 2, 11, 2.75], "texture": "#0"},
				"up": {"uv": [10.5, 2, 11, 2.5], "texture": "#0"},
				"down": {"uv": [10.5, 2, 11, 2.5], "texture": "#0"}
			}
		},
		{
			"from": [7.5, 2.75, 29.25],
			"to": [8.5, 4.75, 30.25],
			"faces": {
				"north": {"uv": [14.5, 2, 15, 3], "texture": "#0"},
				"east": {"uv": [15, 2, 14.5, 3], "texture": "#0"},
				"south": {"uv": [15, 2, 14.5, 3], "texture": "#0"},
				"west": {"uv": [14.5, 2, 15, 3], "texture": "#0"},
				"up": {"uv": [15, 2, 14.5, 2.5], "texture": "#0"},
				"down": {"uv": [15, 2, 14.5, 2.5], "texture": "#0"}
			}
		},
		{
			"from": [7.5, 1, -2],
			"to": [8.5, 5, 6],
			"faces": {
				"north": {"uv": [6.5, 5.625, 7, 7.375], "texture": "#0"},
				"east": {"uv": [13.5, 5.625, 9.5, 7.625], "texture": "#0"},
				"south": {"uv": [13, 5.625, 13.5, 7.625], "texture": "#0"},
				"west": {"uv": [9.5, 5.625, 13.5, 7.625], "texture": "#0"},
				"up": {"uv": [9.5, 5.625, 13.5, 6.125], "texture": "#0", "rotation": 90},
				"down": {"uv": [0, 0, 1, 8], "texture": "#missing"}
			}
		},
		{
			"from": [7.5, 1, -2],
			"to": [8, 1.5, 6],
			"rotation": {"angle": 45, "axis": "z", "origin": [8, 1.5, 1], "rescale": true},
			"faces": {
				"north": {"uv": [5, 8.125, 5.75, 8.625], "texture": "#0"},
				"south": {"uv": [9.5, 8.125, 13.5, 8.625], "texture": "#0"},
				"west": {"uv": [9.5, 8.125, 13.5, 8.625], "texture": "#0"},
				"down": {"uv": [9.5, 8.125, 13.5, 8.625], "texture": "#0", "rotation": 90}
			}
		}
	],
	"display": {
		"thirdperson_righthand": {
			"scale": [0.9, 0.9, 0.9],
			"rotation": [85, 0, 0],
			"translation": [0, 13.5, 3.5]
		},
		"thirdperson_lefthand": {
			"scale": [0.9, 0.9, 0.9],
			"rotation": [85, 0, 0],
			"translation": [0, 13.5, 3.5]
		},
		"firstperson_righthand": {
			"scale": [0.7, 0.7, 0.7],
			"translation": [-2, 10.5, -1.5],
			"rotation": [45, 0, 0]
		},
		"firstperson_lefthand": {
			"scale": [0.7, 0.7, 0.7],
			"rotation": [45, 0, 0],
			"translation": [-2, 10.5, -1.5]
		},
		"ground": {
			"scale": [0.9, 0.9, 0.9],
			"rotation": [0, 0, 90],
			"translation": [-4.5, -3, 0]
		},
		"gui": {
			"scale": [0.5, 0.5, 0.5],
			"rotation": [90, -45, 90],
			"translation": [-1.5, 1, 0]
		}
	}
}