{
	"credit": "Made by 0ptima, totally cool guy from FrostBurn",
	"textures": {"0": "blocks/models/planks_oak_hor"},
	"elements": [
		{
			"name": "1",
			"from": [-1, 2, 15],
			"to": [17, 6, 16],
			"faces": {
				"north": {"uv": [0, 12.5, 16, 16], "texture": "#0"},
				"east": {"uv": [0, 12.5, 1, 16], "texture": "#0"},
				"south": {"uv": [0, 12.5, 16, 16], "texture": "#0"},
				"west": {"uv": [15, 12.5, 16, 16], "texture": "#0"},
				"up": {"uv": [0, 12.5, 16, 13.5], "texture": "#0"},
				"down": {"uv": [0, 15, 16, 16], "texture": "#0"}
			},
			"rotation": {
				"origin": [8, 5, 8],
				"axis": "z",
				"angle": -22.5
			}
		},
		{
			"name": "2",
			"from": [-1, 7, 14.75],
			"to": [16, 11, 15.75],
			"faces": {
				"north": {"uv": [0, 8.5, 16, 12], "texture": "#0"},
				"east": {"uv": [0, 8.5, 1, 12], "texture": "#0"},
				"south": {
					"uv": [0, 8.5, 16, 11.75],
					"texture": "#0"
				},
				"west": {"uv": [15, 8.5, 16, 12], "texture": "#0"},
				"up": {"uv": [0, 8.5, 16, 9.5], "texture": "#0"},
				"down": {"uv": [0, 11, 16, 12], "texture": "#0"}
			},
			"rotation": {
				"origin": [8, 9, 8],
				"axis": "z",
				"angle": 22.5
			}
		},
		{
			"name": "3",
			"from": [-2, 0.25, 14.5],
			"to": [15, 4.25, 15.5],
			"faces": {
				"north": {"uv": [0, 8.5, 16, 12], "texture": "#0"},
				"east": {"uv": [0, 8.5, 1, 12], "texture": "#0"},
				"south": {
					"uv": [0, 8.5, 16, 11.75],
					"texture": "#0"
				},
				"west": {"uv": [15, 8.5, 16, 12], "texture": "#0"},
				"up": {"uv": [0, 8.5, 16, 9.5], "texture": "#0"},
				"down": {"uv": [0, 11, 16, 12], "texture": "#0"}
			},
			"rotation": {
				"origin": [7, 2.25, 7.75],
				"axis": "z",
				"angle": 0
			}
		},
		{
			"name": "2",
			"from": [-0.25, 11.75, 15],
			"to": [17.75, 15.75, 16],
			"faces": {
				"north": {"uv": [0, 0.5, 16, 4], "texture": "#0"},
				"east": {"uv": [0, 12.5, 1, 16], "texture": "#0"},
				"south": {"uv": [0, 12.5, 16, 16], "texture": "#0"},
				"west": {"uv": [15, 12.5, 16, 16], "texture": "#0"},
				"up": {"uv": [0, 12.5, 16, 13.5], "texture": "#0"},
				"down": {"uv": [0, 15, 16, 16], "texture": "#0"}
			},
			"rotation": {
				"origin": [8.75, 14.75, 8],
				"axis": "z",
				"angle": 0
			}
		},
		{
			"name": "4",
			"from": [1, 7, 15.5],
			"to": [18, 11, 16.5],
			"faces": {
				"north": {"uv": [0, 4.5, 16, 8], "texture": "#0"},
				"east": {"uv": [0, 8.5, 1, 12], "texture": "#0"},
				"south": {
					"uv": [0, 8.5, 16, 11.75],
					"texture": "#0"
				},
				"west": {"uv": [15, 8.5, 16, 12], "texture": "#0"},
				"up": {"uv": [0, 8.5, 16, 9.5], "texture": "#0"},
				"down": {"uv": [0, 11, 16, 12], "texture": "#0"}
			},
			"rotation": {
				"origin": [10, 9, 8.75],
				"axis": "z",
				"angle": -22.5
			}
		}
	],
	"display": {
		"thirdperson_righthand": {
			"scale": [0.7, 0.7, 0.7],
			"translation": [4.5, 2, -4.5],
			"rotation": [23, -40, 10]
		},
		"fixed": {
			"scale": [2, 2, 2],
			"translation": [0, 0, -15.5]
		},
		"gui": {"scale": [0.9, 0.9, 0.8]},
		"thirdperson_lefthand": {
			"scale": [0.7, 0.7, 0.7],
			"rotation": [23, -40, 10],
			"translation": [4.5, 2, -4.5]
		},
		"firstperson_righthand": {
			"scale": [0.8, 0.8, 0.8],
			"translation": [-2.5, 2.5, 0],
			"rotation": [-7, 123, 1]
		},
		"firstperson_lefthand": {
			"scale": [0.8, 0.8, 0.8],
			"rotation": [-7, 123, 1],
			"translation": [-2.5, 2.5, 0]
		},
		"head": {"scale": [1, 1, 1]},
		"ground": {
			"scale": [0.8, 0.8, 0.8],
			"rotation": [-90, 0, 0],
			"translation": [0, -9.5, 0]
		}
	}
}