{
	"credit": "Made by 0ptima, totally cool guy from FrostBurn",
	"textures": {
		"0": "blocks/models/shop_blue",
		"particle": "blocks/models/shop_blue"
	},
	"elements": [
		{
			"from": [0, 15.25, 0],
			"to": [16, 16, 16],
			"rotation": {"angle": -45, "axis": "x", "origin": [8, 16, 16], "rescale": true},
			"faces": {
				"north": {"uv": [0, 10.75, 8, 11.325], "texture": "#0"},
				"east": {"uv": [0, 0, 0.5, 11.2], "texture": "#0", "rotation": 90},
				"south": {"uv": [0, 0, 8, 0.575], "texture": "#0"},
				"west": {"uv": [7.5, 0, 8, 11.2], "texture": "#0", "rotation": 90},
				"up": {"uv": [0, 0, 8, 11.2], "texture": "#0"},
				"down": {"uv": [0, 0, 8, 11.2], "texture": "#0"}
			}
		},
		{
			"from": [0.05, 14.25, 15.5],
			"to": [15.95, 15.25, 16.5],
			"faces": {
				"east": {"uv": [8, 0, 8.5, 0.5], "texture": "#0"},
				"south": {"uv": [8, 0, 16, 0.5], "texture": "#0"},
				"west": {"uv": [15.5, 0, 16, 0.5], "texture": "#0"},
				"down": {"uv": [8, 0, 16, 0.5], "texture": "#0"}
			}
		},
		{
			"from": [0.05, 7.75, 9],
			"to": [1.05, 8.75, 16],
			"faces": {
				"east": {"uv": [11.125, 2, 11.625, 5.5], "texture": "#0", "rotation": 90},
				"south": {"uv": [11.125, 2, 11.625, 2.5], "texture": "#0"},
				"west": {"uv": [11.125, 2, 11.625, 5.5], "texture": "#0", "rotation": 90},
				"up": {"uv": [11.125, 2, 11.625, 5.5], "texture": "#0"},
				"down": {"uv": [11.125, 2, 11.625, 5.5], "texture": "#0"}
			}
		},
		{
			"from": [14.95, 7.75, 9],
			"to": [15.95, 8.75, 16],
			"faces": {
				"east": {"uv": [11.125, 2, 11.625, 5.5], "texture": "#0", "rotation": 90},
				"south": {"uv": [11.125, 2, 11.625, 2.5], "texture": "#0"},
				"west": {"uv": [11.125, 2, 11.625, 5.5], "texture": "#0", "rotation": 90},
				"up": {"uv": [11.125, 2, 11.625, 5.5], "texture": "#0"},
				"down": {"uv": [11.125, 2, 11.625, 5.5], "texture": "#0"}
			}
		},
		{
			"from": [0.1, 8, 15.5],
			"to": [15.9, 9, 16.5],
			"faces": {
				"north": {"uv": [8, 0, 16, 0.5], "texture": "#0"},
				"east": {"uv": [8, 0, 8.5, 0.5], "texture": "#0"},
				"south": {"uv": [8, 0, 16, 0.5], "texture": "#0"},
				"west": {"uv": [15.5, 0, 16, 0.5], "texture": "#0"},
				"up": {"uv": [8, 0, 16, 0.5], "texture": "#0"},
				"down": {"uv": [8, 0, 16, 0.5], "texture": "#0"}
			}
		}
	],
	"display": {
		"thirdperson_righthand": {
			"scale": [0.7, 0.7, 0.7],
			"rotation": [0, -6, -28],
			"translation": [1, -2.5, -3.5]
		},
		"fixed": {
			"scale": [2, 2, 2],
			"translation": [0, 0, -15]
		},
		"thirdperson_lefthand": {
			"scale": [0.7, 0.7, 0.7],
			"rotation": [0, -6, -28],
			"translation": [1, -2.5, -3.5]
		},
		"firstperson_righthand": {
			"scale": [0.7, 0.7, 0.7],
			"translation": [5.5, -0.5, 0],
			"rotation": [-25, -37, 3]
		},
		"firstperson_lefthand": {
			"scale": [0.7, 0.7, 0.7],
			"rotation": [-25, -37, 3],
			"translation": [5.5, -0.5, 0]
		},
		"head": {
			"translation": [0, 3.5, -9],
			"rotation": [-18, 0, 0]
		},
		"ground": {
			"scale": [0.8, 0.8, 0.8],
			"translation": [0, -4, 0],
			"rotation": [-135, 0, 0]
		}
	}
}