{
    "variants": {
        "half=bottom": [
		{ "model": "half_slab_nether_brick" },
		{ "model": "half_slab_nether_brick", "y": 90 },
		{ "model": "half_slab_nether_brick", "y": 180 },
		{ "model": "half_slab_nether_brick", "y": 270 }
		],
        "half=top": [
		{ "model": "upper_slab_nether_brick" },
		{ "model": "upper_slab_nether_brick", "y": 90 },
		{ "model": "upper_slab_nether_brick", "y": 180 },
		{ "model": "upper_slab_nether_brick", "y": 270 }
		]
    }
}
